R Language Basics and Data Importing
…
```
# A tibble: 5 × 2
    age word   
  <dbl> <chr>  
1  12   book   
2  12   ball   
3  12   bye bye
4  12.5 dad    
5  13.5 cat    
```

```
# A tibble: 440 × 2
     age word        
   <dbl> <chr>       
 1  12.5 dad         
 2  12   book        
 3  12   ball        
 4  12   bye bye     
 5  13.5 cat         
 6  14.5 socks/shoes 
 7  14.5 dog (animal)
 8  14   baby        
 9  15.5 cheese      
10  15.5 turkey      
# … with 430 more rows
```
…
