R Language Basics and Data Importing
…
# Make a variable containing the list of data files
full_file_names <- list.files('data_raw', full.names = TRUE)

# Pass the list to read_csv to read all of them into a single tibble
ds_all <- read_csv(full_file_names)
*print(ds_all)
```
]
 
.panel2-import_multiple-auto[

```
# A tibble: 440 × 2
     age word        
   <dbl> <chr>       
 1  12.5 dad         
 2  12   book        
 3  12   ball        
 4  12   bye bye     
 5  13.5 cat         
 6  14.5 socks/shoes 
 7  14.5 dog (animal)
 8  14   baby        
 9  15.5 cheese      
10  15.5 turkey      
# … with 430 more rows
```
…
.panel2-tibble-auto[

```
[1] 12
```

```
[1] 24
```

```
# A tibble: 440 × 4
     age word         ppt_name age_round
   <dbl> <chr>        <chr>        <dbl>
 1  12.5 dad          Jonah           12
 2  12   book         Jonah           12
 3  12   ball         Jonah           12
 4  12   bye bye      Jonah           12
 5  13.5 cat          Jonah           14
 6  14.5 socks/shoes  Jonah           14
 7  14.5 dog (animal) Jonah           14
 8  14   baby         Jonah           14
 9  15.5 cheese       Jonah           16
10  15.5 turkey       Jonah           16
# … with 430 more rows
```
…
.panel2-tibble-auto[

```
[1] 12
```

```
[1] 24
```

```
# A tibble: 440 × 4
     age word         ppt_name age_round
   <dbl> <chr>        <chr>        <dbl>
 1  12.5 dad          Jonah           12
 2  12   book         Jonah           12
 3  12   ball         Jonah           12
 4  12   bye bye      Jonah           12
 5  13.5 cat          Jonah           14
 6  14.5 socks/shoes  Jonah           14
 7  14.5 dog (animal) Jonah           14
 8  14   baby         Jonah           14
 9  15.5 cheese       Jonah           16
10  15.5 turkey       Jonah           16
# … with 430 more rows
```
…
.panel1-read_options-rotate[

```r
fname <- "data_cleaned/vocab_combined.csv"
colname <- c("AGE", "WORD", "NAME", "MONTH")
coltypes <- "cccc"
*ds <- read_csv(file = fname)
print(ds)
```
]
 
.panel2-read_options-rotate[

```
# A tibble: 440 × 4
     age word         ppt_name age_round
   <dbl> <chr>        <chr>        <dbl>
 1  12.5 dad          Jonah           12
 2  12   book         Jonah           12
 3  12   ball         Jonah           12
 4  12   bye bye      Jonah           12
 5  13.5 cat          Jonah           14
 6  14.5 socks/shoes  Jonah           14
 7  14.5 dog (animal) Jonah           14
 8  14   baby         Jonah           14
 9  15.5 cheese       Jonah           16
10  15.5 turkey       Jonah           16
# … with 430 more rows
```
…
.panel1-read_options-rotate[

```r
fname <- "data_cleaned/vocab_combined.csv"
colname <- c("AGE", "WORD", "NAME", "MONTH")
coltypes <- "cccc"
*ds <- read_csv(file = fname, col_names = FALSE)
print(ds)
```
]
 
.panel2-read_options-rotate[

```
# A tibble: 441 × 4
   X1    X2           X3       X4       
   <chr> <chr>        <chr>    <chr>    
 1 age   word         ppt_name age_round
 2 12.5  dad          Jonah    12       
 3 12    book         Jonah    12       
 4 12    ball         Jonah    12       
 5 12    bye bye      Jonah    12       
 6 13.5  cat          Jonah    14       
 7 14.5  socks/shoes  Jonah    14       
 8 14.5  dog (animal) Jonah    14       
 9 14    baby         Jonah    14       
10 15.5  cheese       Jonah    16       
# … with 431 more rows
```
…
.panel1-read_options-rotate[

```r
fname <- "data_cleaned/vocab_combined.csv"
colname <- c("AGE", "WORD", "NAME", "MONTH")
coltypes <- "cccc"
*ds <- read_csv(file = fname, col_names = colname)
print(ds)
```
]
 
.panel2-read_options-rotate[

```
# A tibble: 441 × 4
   AGE   WORD         NAME     MONTH    
   <chr> <chr>        <chr>    <chr>    
 1 age   word         ppt_name age_round
 2 12.5  dad          Jonah    12       
 3 12    book         Jonah    12       
 4 12    ball         Jonah    12       
 5 12    bye bye      Jonah    12       
 6 13.5  cat          Jonah    14       
 7 14.5  socks/shoes  Jonah    14       
 8 14.5  dog (animal) Jonah    14       
 9 14    baby         Jonah    14       
10 15.5  cheese       Jonah    16       
# … with 431 more rows
```
…
.panel1-read_options-rotate[

```r
fname <- "data_cleaned/vocab_combined.csv"
colname <- c("AGE", "WORD", "NAME", "MONTH")
coltypes <- "cccc"
*ds <- read_csv(file = fname, col_names = colname, skip = 1)
print(ds)
```
]
 
.panel2-read_options-rotate[

```
# A tibble: 440 × 4
     AGE WORD         NAME  MONTH
   <dbl> <chr>        <chr> <dbl>
 1  12.5 dad          Jonah    12
 2  12   book         Jonah    12
 3  12   ball         Jonah    12
 4  12   bye bye      Jonah    12
 5  13.5 cat          Jonah    14
 6  14.5 socks/shoes  Jonah    14
 7  14.5 dog (animal) Jonah    14
 8  14   baby         Jonah    14
 9  15.5 cheese       Jonah    16
10  15.5 turkey       Jonah    16
# … with 430 more rows
```
…
.panel1-read_options-rotate[

```r
fname <- "data_cleaned/vocab_combined.csv"
colname <- c("AGE", "WORD", "NAME", "MONTH")
coltypes <- "cccc"
*ds <- read_csv(file = fname, col_names = colname, skip = 1, col_types = coltypes)
print(ds)
```
]
 
.panel2-read_options-rotate[

```
# A tibble: 440 × 4
   AGE   WORD         NAME  MONTH
   <chr> <chr>        <chr> <chr>
 1 12.5  dad          Jonah 12   
 2 12    book         Jonah 12   
 3 12    ball         Jonah 12   
 4 12    bye bye      Jonah 12   
 5 13.5  cat          Jonah 14   
 6 14.5  socks/shoes  Jonah 14   
 7 14.5  dog (animal) Jonah 14   
 8 14    baby         Jonah 14   
 9 15.5  cheese       Jonah 16   
10 15.5  turkey       Jonah 16   
# … with 430 more rows
```
…
